C:\Users\DivyaS\Documents\ibm-fsd-backend\labs\servlets\SpringRESTEmployeeEx\src\main\java\com\examples\spring\rest\EmployeeController.java
C:\Users\DivyaS\Documents\ibm-fsd-backend\labs\servlets\SpringRESTEmployeeEx\src\main\java\com\examples\spring\rest\Employee.java
C:\Users\DivyaS\Documents\ibm-fsd-backend\labs\servlets\SpringRESTEmployeeEx\src\main\java\com\examples\spring\rest\EmployeeService.java
